
/feed
/comments/feed
/wp-includes/css/dist/block-library/style.min.css
/wp-content/plugins/contact-form-7/includes/css/styles.css
/wp-content/themes/photograph/style.css
/wp-content/themes/photograph/assets/wow/css/animate.min.css
/wp-content/themes/photograph/assets/font-awesome/css/font-awesome.min.css
/wp-content/themes/photograph/assets/fancybox/css/jquery.fancybox.min.css
/wp-content/themes/photograph/css/responsive.css
/wp-includes/js/jquery/jquery.js
/wp-includes/js/jquery/jquery-migrate.min.js
/wp-json/
/
/wp-json/oembed/1.0/embed
/wp-content/uploads/2019/05/cropped-logoOrgCut500-32x32.png
/wp-content/uploads/2019/05/cropped-logoOrgCut500-192x192.png
/wp-content/uploads/2019/05/cropped-logoOrgCut500-180x180.png
/wp-content/uploads/2019/05/cropped-logoOrgCut500-270x270.png

/contact
/about-us
/archives/431
/archives/430
/wp-content/uploads/2019/05/DSC_9315_big.jpg
/wp-content/uploads/2019/05/DSC_9315_big-199x300.jpg
/wp-content/uploads/2019/05/DSC_9315_big-768x1156.jpg
/wp-content/uploads/2019/05/DSC_9315_big-680x1024.jpg
/wp-content/uploads/2019/05/DSC_0771_big.jpg
/wp-content/uploads/2019/05/DSC_0771_big-300x199.jpg
/wp-content/uploads/2019/05/DSC_0771_big-768x510.jpg
/wp-content/uploads/2019/05/DSC_0771_big-1024x680.jpg
/wp-content/uploads/2019/05/DSC_9553_big.jpg
/wp-content/uploads/2019/05/DSC_9553_big-300x199.jpg
/wp-content/uploads/2019/05/DSC_9553_big-768x510.jpg
/wp-content/uploads/2019/05/DSC_9553_big-1024x680.jpg
/wp-content/uploads/2019/05/claire.png
/wp-content/uploads/2019/05/claire-199x300.png
/wp-content/uploads/2019/05/sittingOnLawn.png
/wp-content/uploads/2019/05/sittingOnLawn-300x199.png
/wp-content/uploads/2019/05/beforeChristmasTree.png
/wp-content/uploads/2019/05/beforeChristmasTree-199x300.png
/wp-content/uploads/2019/05/bride.png
/wp-content/uploads/2019/05/bride-300x199.png
/wp-content/uploads/2019/05/groom.png
/wp-content/uploads/2019/05/groom-300x199.png
/wp-content/uploads/2019/05/DSC_5489_big.jpg
/wp-content/uploads/2019/05/DSC_5489_big-199x300.jpg
/wp-content/uploads/2019/05/DSC_5489_big-768x1156.jpg
/wp-content/uploads/2019/05/DSC_5489_big-680x1024.jpg
/wp-content/uploads/2019/05/DSC4358_big.jpg
/wp-content/uploads/2019/05/DSC4358_big-199x300.jpg
/wp-content/uploads/2019/05/DSC4358_big-768x1156.jpg
/wp-content/uploads/2019/05/DSC4358_big-680x1024.jpg
/wp-content/uploads/2019/05/DSC4367_big.jpg
/wp-content/uploads/2019/05/DSC4367_big-300x199.jpg
/wp-content/uploads/2019/05/DSC4367_big-768x510.jpg
/wp-content/uploads/2019/05/DSC4367_big-1024x680.jpg
/wp-content/uploads/2019/05/DSC_7932_big.jpg
/wp-content/uploads/2019/05/DSC_7932_big-300x199.jpg
/wp-content/uploads/2019/05/DSC_7932_big-768x510.jpg
/wp-content/uploads/2019/05/DSC_7932_big-1024x680.jpg
/wp-content/uploads/2019/05/DSC_8451_big.jpg
/wp-content/uploads/2019/05/DSC_8451_big-199x300.jpg
/wp-content/uploads/2019/05/DSC_8451_big-768x1156.jpg
/wp-content/uploads/2019/05/DSC_8451_big-680x1024.jpg
/wp-content/uploads/2019/05/DSC_1129.jpg
/wp-content/uploads/2019/05/DSC_1129-300x199.jpg
/wp-content/uploads/2019/05/DSC_1129-768x510.jpg
/wp-content/uploads/2019/05/DSC_1129-1024x680.jpg
/wp-content/uploads/2019/05/DSC_1105.jpg
/wp-content/uploads/2019/05/DSC_1105-300x199.jpg
/wp-content/uploads/2019/05/DSC_1105-768x510.jpg
/wp-content/uploads/2019/05/DSC_1105-1024x680.jpg
/wp-content/uploads/2019/05/DSC_1163.jpg
/wp-content/uploads/2019/05/DSC_1163-199x300.jpg
/wp-content/uploads/2019/05/DSC_1163-768x1156.jpg
/wp-content/uploads/2019/05/DSC_1163-680x1024.jpg
/wp-content/uploads/2019/05/DSC_0746_big.jpg
/wp-content/uploads/2019/05/DSC_0746_big-300x199.jpg
/wp-content/uploads/2019/05/DSC_0746_big-768x510.jpg
/wp-content/uploads/2019/05/DSC_0746_big-1024x680.jpg
/wp-content/uploads/2019/05/DSC_0627_big.jpg
/wp-content/uploads/2019/05/DSC_0627_big-199x300.jpg
/wp-content/uploads/2019/05/DSC_0627_big-768x1156.jpg
/wp-content/uploads/2019/05/DSC_0627_big-680x1024.jpg
/wp-content/uploads/2019/05/DSC_1615.jpg
/wp-content/uploads/2019/05/DSC_1615-300x204.jpg
/wp-content/uploads/2019/05/DSC_1615-768x523.jpg
/wp-content/uploads/2019/05/DSC_1615-1024x698.jpg
/wp-content/uploads/2019/05/DSC_1435.jpg
/wp-content/uploads/2019/05/DSC_1435-300x195.jpg
/wp-content/uploads/2019/05/DSC_1435-768x498.jpg
/wp-content/uploads/2019/05/DSC_1435-1024x665.jpg
/wp-content/uploads/2019/05/DSC_1566.jpg
/wp-content/uploads/2019/05/DSC_1566-199x300.jpg
/wp-content/uploads/2019/05/DSC_1566-768x1156.jpg
/wp-content/uploads/2019/05/DSC_1566-680x1024.jpg
/wp-content/uploads/2019/05/DSC_1952.jpg
/wp-content/uploads/2019/05/DSC_1952-211x300.jpg
/wp-content/uploads/2019/05/DSC_1952-768x1093.jpg
/wp-content/uploads/2019/05/DSC_1952-720x1024.jpg
/wp-content/uploads/2019/05/pc.png
/wp-content/uploads/2019/05/pc-300x199.png
/wp-content/uploads/2019/05/eatingSand.png
/wp-content/uploads/2019/05/eatingSand-300x199.png
/wp-content/uploads/2019/05/1551668200375.jpg
/wp-content/uploads/2019/05/1551668200375-150x150.jpg
/wp-content/uploads/2019/05/1551668200375-300x300.jpg
/wp-content/uploads/2019/05/1551668200375-768x768.jpg
/wp-content/uploads/2019/05/1551668200375-1024x1024.jpg
/wp-content/uploads/2019/05/1551668200375-75x75.jpg
/wp-content/uploads/2019/05/DSC_7959_big.jpg
/wp-content/uploads/2019/05/DSC_7959_big-199x300.jpg
/wp-content/uploads/2019/05/DSC_7959_big-768x1156.jpg
/wp-content/uploads/2019/05/DSC_7959_big-680x1024.jpg
/wp-content/uploads/2019/05/DSC_9812_big.jpg
/wp-content/uploads/2019/05/DSC_9812_big-199x300.jpg
/wp-content/uploads/2019/05/DSC_9812_big-768x1156.jpg
/wp-content/uploads/2019/05/DSC_9812_big-680x1024.jpg
/wp-content/uploads/2019/05/DSC_5563_big.jpg
/wp-content/uploads/2019/05/DSC_5563_big-199x300.jpg
/wp-content/uploads/2019/05/DSC_5563_big-768x1156.jpg
/wp-content/uploads/2019/05/DSC_5563_big-680x1024.jpg
/wp-content/uploads/2019/05/DSC_9097_big.jpg
/wp-content/uploads/2019/05/DSC_9097_big-199x300.jpg
/wp-content/uploads/2019/05/DSC_9097_big-768x1156.jpg
/wp-content/uploads/2019/05/DSC_9097_big-680x1024.jpg
/wp-content/uploads/2019/05/DSC1402_big.jpg
/wp-content/uploads/2019/05/DSC1402_big-300x199.jpg
/wp-content/uploads/2019/05/DSC1402_big-768x510.jpg
/wp-content/uploads/2019/05/DSC1402_big-1024x680.jpg
/wp-content/uploads/2019/05/DSC_8229-2_big.jpg
/wp-content/uploads/2019/05/DSC_8229-2_big-199x300.jpg
/wp-content/uploads/2019/05/DSC_8229-2_big-768x1156.jpg
/wp-content/uploads/2019/05/DSC_8229-2_big-680x1024.jpg
/wp-content/uploads/2019/05/withSon.png
/wp-content/uploads/2019/05/withSon-199x300.png
/wp-content/uploads/2019/05/fence.png
/wp-content/uploads/2019/05/fence-300x199.png
/wp-content/uploads/2019/05/cleoOnRoad.png
/wp-content/uploads/2019/05/cleoOnRoad-199x300.png
/wp-content/uploads/2019/05/throughMenLian.png
/wp-content/uploads/2019/05/throughMenLian-199x300.png
/wp-content/uploads/2019/05/claireAtDoor.png
/wp-content/uploads/2019/05/claireAtDoor-199x300.png
/wp-content/plugins/contact-form-7/includes/js/scripts.js
/wp-content/themes/photograph/js/photograph-main.js
/wp-content/themes/photograph/assets/wow/js/wow.min.js
/wp-content/themes/photograph/assets/wow/js/wow-settings.js
/wp-content/themes/photograph/assets/sticky/jquery.sticky.min.js
/wp-content/themes/photograph/assets/sticky/sticky-settings.js
/wp-content/themes/photograph/js/navigation.js
/wp-content/themes/photograph/js/jquery.flexslider-min.js
/wp-content/themes/photograph/js/flexslider-setting.js
/wp-content/themes/photograph/js/imagesloaded.pkgd.min.js
/wp-content/themes/photograph/js/isotope.pkgd.min.js
/wp-content/themes/photograph/js/isotope-setting.js
/wp-content/themes/photograph/assets/fancybox/js/jquery.fancybox.min.js
/wp-content/themes/photograph/assets/fancybox/js/fancybox-settings.js










